<?xml version="1.0" encoding="UTF-8" standalone="no"?>
<!-- Created with Inkscape (http://www.inkscape.org/) -->

<svg
   xmlns:dc="http://purl.org/dc/elements/1.1/"
   xmlns:cc="http://creativecommons.org/ns#"
   xmlns:rdf="http://www.w3.org/1999/02/22-rdf-syntax-ns#"
   xmlns:svg="http://www.w3.org/2000/svg"
   xmlns="http://www.w3.org/2000/svg"
   xmlns:sodipodi="http://sodipodi.sourceforge.net/DTD/sodipodi-0.dtd"
   xmlns:inkscape="http://www.inkscape.org/namespaces/inkscape"
   width="182.34697mm"
   height="101.56242mm"
   viewBox="0 0 182.34697 101.56242"
   version="1.1"
   id="svg2027"
   inkscape:version="0.92.5 (2060ec1f9f, 2020-04-08)"
   sodipodi:docname="fig_raster_calc_stats.svg"
   inkscape:export-filename="/home/poulpe/Enseignement/fiches_focus_online/BriquesDeGeomatique/figures/fig_raster_calc_stats.png"
   inkscape:export-xdpi="150"
   inkscape:export-ydpi="150">
  <defs
     id="defs2021" />
  <sodipodi:namedview
     id="base"
     pagecolor="#ffffff"
     bordercolor="#666666"
     borderopacity="1.0"
     inkscape:pageopacity="0.0"
     inkscape:pageshadow="2"
     inkscape:zoom="1.8093825"
     inkscape:cx="344.5927"
     inkscape:cy="191.92899"
     inkscape:document-units="mm"
     inkscape:current-layer="layer1"
     showgrid="false"
     inkscape:window-width="1920"
     inkscape:window-height="1011"
     inkscape:window-x="0"
     inkscape:window-y="0"
     inkscape:window-maximized="1"
     fit-margin-top="0"
     fit-margin-left="0"
     fit-margin-right="0"
     fit-margin-bottom="0" />
  <metadata
     id="metadata2024">
    <rdf:RDF>
      <cc:Work
         rdf:about="">
        <dc:format>image/svg+xml</dc:format>
        <dc:type
           rdf:resource="http://purl.org/dc/dcmitype/StillImage" />
        <dc:title></dc:title>
      </cc:Work>
    </rdf:RDF>
  </metadata>
  <g
     inkscape:label="Calque 1"
     inkscape:groupmode="layer"
     id="layer1"
     transform="translate(-6.4144688,-4.6071367)">
    <rect
       style="opacity:1;fill:#848484;fill-opacity:1;stroke:none;stroke-width:0.72999269;stroke-miterlimit:4;stroke-dasharray:none;stroke-dashoffset:0;stroke-opacity:1"
       id="rect3569"
       width="78.978157"
       height="101.5623"
       x="109.78329"
       y="4.6072588" />
    <rect
       style="opacity:1;fill:#d3d3d3;fill-opacity:1;stroke:none;stroke-width:0.50968027;stroke-miterlimit:4;stroke-dasharray:none;stroke-dashoffset:0;stroke-opacity:1"
       id="rect3563"
       width="97.018829"
       height="101.56242"
       x="6.4144688"
       y="4.6071367" />
    <g
       id="g3416"
       transform="translate(-2.9399648,-12.027129)">
      <rect
         y="26.919207"
         x="12.797821"
         height="13.630746"
         width="13.630746"
         id="rect815"
         style="opacity:1;fill:#ffffff;fill-opacity:1;stroke:#626262;stroke-width:0.5;stroke-miterlimit:4;stroke-dasharray:none;stroke-dashoffset:0;stroke-opacity:1" />
      <rect
         y="26.919207"
         x="26.428566"
         height="13.630746"
         width="13.630746"
         id="rect815-3"
         style="opacity:1;fill:#ffffff;fill-opacity:1;stroke:#626262;stroke-width:0.5;stroke-miterlimit:4;stroke-dasharray:none;stroke-dashoffset:0;stroke-opacity:1" />
      <rect
         y="26.919209"
         x="40.059311"
         height="13.630746"
         width="13.630746"
         id="rect815-6"
         style="opacity:1;fill:#ffffff;fill-opacity:1;stroke:#626262;stroke-width:0.5;stroke-miterlimit:4;stroke-dasharray:none;stroke-dashoffset:0;stroke-opacity:1" />
      <rect
         y="40.549953"
         x="12.797821"
         height="13.630746"
         width="13.630746"
         id="rect815-7"
         style="opacity:1;fill:#ffffff;fill-opacity:1;stroke:#626262;stroke-width:0.5;stroke-miterlimit:4;stroke-dasharray:none;stroke-dashoffset:0;stroke-opacity:1" />
      <rect
         y="40.549953"
         x="26.428566"
         height="13.630746"
         width="13.630746"
         id="rect815-5"
         style="opacity:1;fill:#ffffff;fill-opacity:1;stroke:#626262;stroke-width:0.5;stroke-miterlimit:4;stroke-dasharray:none;stroke-dashoffset:0;stroke-opacity:1" />
      <rect
         y="40.549953"
         x="40.059311"
         height="13.630746"
         width="13.630746"
         id="rect815-35"
         style="opacity:1;fill:#ffffff;fill-opacity:1;stroke:#626262;stroke-width:0.5;stroke-miterlimit:4;stroke-dasharray:none;stroke-dashoffset:0;stroke-opacity:1" />
      <rect
         y="54.180698"
         x="12.797819"
         height="13.630746"
         width="13.630746"
         id="rect815-62"
         style="opacity:1;fill:#ffffff;fill-opacity:1;stroke:#626262;stroke-width:0.5;stroke-miterlimit:4;stroke-dasharray:none;stroke-dashoffset:0;stroke-opacity:1" />
      <rect
         y="54.180698"
         x="26.428566"
         height="13.630746"
         width="13.630746"
         id="rect815-9"
         style="opacity:1;fill:#ffffff;fill-opacity:1;stroke:#626262;stroke-width:0.5;stroke-miterlimit:4;stroke-dasharray:none;stroke-dashoffset:0;stroke-opacity:1" />
      <rect
         y="54.180698"
         x="40.059311"
         height="13.630746"
         width="13.630746"
         id="rect815-1"
         style="opacity:1;fill:#ffffff;fill-opacity:1;stroke:#626262;stroke-width:0.5;stroke-miterlimit:4;stroke-dasharray:none;stroke-dashoffset:0;stroke-opacity:1" />
      <text
         id="text876"
         y="36.352852"
         x="17.463455"
         style="font-style:normal;font-weight:normal;font-size:10.58333302px;line-height:1.25;font-family:sans-serif;letter-spacing:0px;word-spacing:0px;fill:#000000;fill-opacity:1;stroke:none;stroke-width:0.26458332"
         xml:space="preserve"><tspan
           style="font-size:7.05555534px;stroke-width:0.26458332"
           y="36.352852"
           x="17.463455"
           id="tspan874"
           sodipodi:role="line">2</tspan></text>
      <text
         id="text876-2"
         y="36.25639"
         x="31.035633"
         style="font-style:normal;font-weight:normal;font-size:10.58333302px;line-height:1.25;font-family:sans-serif;letter-spacing:0px;word-spacing:0px;fill:#000000;fill-opacity:1;stroke:none;stroke-width:0.26458332"
         xml:space="preserve"><tspan
           style="font-size:7.05555534px;stroke-width:0.26458332"
           y="36.25639"
           x="31.035633"
           id="tspan874-7"
           sodipodi:role="line">5</tspan></text>
      <text
         id="text876-0"
         y="36.302902"
         x="44.631927"
         style="font-style:normal;font-weight:normal;font-size:10.58333302px;line-height:1.25;font-family:sans-serif;letter-spacing:0px;word-spacing:0px;fill:#000000;fill-opacity:1;stroke:none;stroke-width:0.26458332"
         xml:space="preserve"><tspan
           style="font-size:7.05555534px;stroke-width:0.26458332"
           y="36.302902"
           x="44.631927"
           id="tspan874-9"
           sodipodi:role="line">8</tspan></text>
      <text
         id="text876-3"
         y="49.933643"
         x="17.382494"
         style="font-style:normal;font-weight:normal;font-size:10.58333302px;line-height:1.25;font-family:sans-serif;letter-spacing:0px;word-spacing:0px;fill:#000000;fill-opacity:1;stroke:none;stroke-width:0.26458332"
         xml:space="preserve"><tspan
           style="font-size:7.05555534px;stroke-width:0.26458332"
           y="49.933643"
           x="17.382494"
           id="tspan874-6"
           sodipodi:role="line">3</tspan></text>
      <text
         id="text876-06"
         y="49.937092"
         x="30.937447"
         style="font-style:normal;font-weight:normal;font-size:10.58333302px;line-height:1.25;font-family:sans-serif;letter-spacing:0px;word-spacing:0px;fill:#000000;fill-opacity:1;stroke:none;stroke-width:0.26458332"
         xml:space="preserve"><tspan
           style="font-size:7.05555534px;stroke-width:0.26458332"
           y="49.937092"
           x="30.937447"
           id="tspan874-2"
           sodipodi:role="line">1</tspan></text>
      <text
         id="text876-6"
         y="49.933643"
         x="44.631927"
         style="font-style:normal;font-weight:normal;font-size:10.58333302px;line-height:1.25;font-family:sans-serif;letter-spacing:0px;word-spacing:0px;fill:#000000;fill-opacity:1;stroke:none;stroke-width:0.26458332"
         xml:space="preserve"><tspan
           style="font-size:7.05555534px;stroke-width:0.26458332"
           y="49.933643"
           x="44.631927"
           id="tspan874-1"
           sodipodi:role="line">0</tspan></text>
      <text
         id="text876-8"
         y="63.564388"
         x="17.39455"
         style="font-style:normal;font-weight:normal;font-size:10.58333302px;line-height:1.25;font-family:sans-serif;letter-spacing:0px;word-spacing:0px;fill:#000000;fill-opacity:1;stroke:none;stroke-width:0.26458332"
         xml:space="preserve"><tspan
           style="font-size:7.05555534px;stroke-width:0.26458332"
           y="63.564388"
           x="17.39455"
           id="tspan874-79"
           sodipodi:role="line">9</tspan></text>
      <text
         id="text876-20"
         y="63.567837"
         x="31.025299"
         style="font-style:normal;font-weight:normal;font-size:10.58333302px;line-height:1.25;font-family:sans-serif;letter-spacing:0px;word-spacing:0px;fill:#000000;fill-opacity:1;stroke:none;stroke-width:0.26458332"
         xml:space="preserve"><tspan
           style="font-size:7.05555534px;stroke-width:0.26458332"
           y="63.567837"
           x="31.025299"
           id="tspan874-23"
           sodipodi:role="line">4</tspan></text>
      <text
         id="text876-7"
         y="63.564388"
         x="44.643986"
         style="font-style:normal;font-weight:normal;font-size:10.58333302px;line-height:1.25;font-family:sans-serif;letter-spacing:0px;word-spacing:0px;fill:#000000;fill-opacity:1;stroke:none;stroke-width:0.26458332"
         xml:space="preserve"><tspan
           style="font-size:7.05555534px;stroke-width:0.26458332"
           y="63.564388"
           x="44.643986"
           id="tspan874-5"
           sodipodi:role="line">3</tspan></text>
    </g>
    <g
       id="g3445"
       transform="translate(-4.0090429,-13.368412)">
      <rect
         y="28.26049"
         x="63.209244"
         height="13.630746"
         width="13.630746"
         id="rect815-8"
         style="opacity:1;fill:#ffffff;fill-opacity:1;stroke:#626262;stroke-width:0.5;stroke-miterlimit:4;stroke-dasharray:none;stroke-dashoffset:0;stroke-opacity:1" />
      <rect
         y="28.26049"
         x="76.839989"
         height="13.630746"
         width="13.630746"
         id="rect815-3-4"
         style="opacity:1;fill:#ffffff;fill-opacity:1;stroke:#626262;stroke-width:0.5;stroke-miterlimit:4;stroke-dasharray:none;stroke-dashoffset:0;stroke-opacity:1" />
      <rect
         y="28.260492"
         x="90.470734"
         height="13.630746"
         width="13.630746"
         id="rect815-6-7"
         style="opacity:1;fill:#ffffff;fill-opacity:1;stroke:#626262;stroke-width:0.5;stroke-miterlimit:4;stroke-dasharray:none;stroke-dashoffset:0;stroke-opacity:1" />
      <rect
         y="41.891235"
         x="63.209244"
         height="13.630746"
         width="13.630746"
         id="rect815-7-2"
         style="opacity:1;fill:#ffffff;fill-opacity:1;stroke:#626262;stroke-width:0.5;stroke-miterlimit:4;stroke-dasharray:none;stroke-dashoffset:0;stroke-opacity:1" />
      <rect
         y="41.891235"
         x="76.839989"
         height="13.630746"
         width="13.630746"
         id="rect815-5-4"
         style="opacity:1;fill:#ffffff;fill-opacity:1;stroke:#626262;stroke-width:0.5;stroke-miterlimit:4;stroke-dasharray:none;stroke-dashoffset:0;stroke-opacity:1" />
      <rect
         y="41.891235"
         x="90.470734"
         height="13.630746"
         width="13.630746"
         id="rect815-35-0"
         style="opacity:1;fill:#ffffff;fill-opacity:1;stroke:#626262;stroke-width:0.5;stroke-miterlimit:4;stroke-dasharray:none;stroke-dashoffset:0;stroke-opacity:1" />
      <rect
         y="55.52198"
         x="63.209244"
         height="13.630746"
         width="13.630746"
         id="rect815-62-6"
         style="opacity:1;fill:#ffffff;fill-opacity:1;stroke:#626262;stroke-width:0.5;stroke-miterlimit:4;stroke-dasharray:none;stroke-dashoffset:0;stroke-opacity:1" />
      <rect
         y="55.52198"
         x="76.839989"
         height="13.630746"
         width="13.630746"
         id="rect815-9-2"
         style="opacity:1;fill:#ffffff;fill-opacity:1;stroke:#626262;stroke-width:0.5;stroke-miterlimit:4;stroke-dasharray:none;stroke-dashoffset:0;stroke-opacity:1" />
      <rect
         y="55.52198"
         x="90.470734"
         height="13.630746"
         width="13.630746"
         id="rect815-1-9"
         style="opacity:1;fill:#ffffff;fill-opacity:1;stroke:#626262;stroke-width:0.5;stroke-miterlimit:4;stroke-dasharray:none;stroke-dashoffset:0;stroke-opacity:1" />
      <text
         id="text876-9"
         y="37.694134"
         x="67.874878"
         style="font-style:normal;font-weight:normal;font-size:10.58333302px;line-height:1.25;font-family:sans-serif;letter-spacing:0px;word-spacing:0px;fill:#000000;fill-opacity:1;stroke:none;stroke-width:0.26458332"
         xml:space="preserve"><tspan
           style="font-size:7.05555534px;stroke-width:0.26458332"
           y="37.694134"
           x="67.874878"
           id="tspan874-0"
           sodipodi:role="line">5</tspan></text>
      <text
         id="text876-2-8"
         y="37.597672"
         x="81.44706"
         style="font-style:normal;font-weight:normal;font-size:10.58333302px;line-height:1.25;font-family:sans-serif;letter-spacing:0px;word-spacing:0px;fill:#000000;fill-opacity:1;stroke:none;stroke-width:0.26458332"
         xml:space="preserve"><tspan
           style="font-size:7.05555534px;stroke-width:0.26458332"
           y="37.597672"
           x="81.44706"
           id="tspan874-7-1"
           sodipodi:role="line">3</tspan></text>
      <text
         id="text876-0-3"
         y="37.644184"
         x="95.04335"
         style="font-style:normal;font-weight:normal;font-size:10.58333302px;line-height:1.25;font-family:sans-serif;letter-spacing:0px;word-spacing:0px;fill:#000000;fill-opacity:1;stroke:none;stroke-width:0.26458332"
         xml:space="preserve"><tspan
           style="font-size:7.05555534px;stroke-width:0.26458332"
           y="37.644184"
           x="95.04335"
           id="tspan874-9-1"
           sodipodi:role="line">2</tspan></text>
      <text
         id="text876-3-1"
         y="51.274925"
         x="67.793915"
         style="font-style:normal;font-weight:normal;font-size:10.58333302px;line-height:1.25;font-family:sans-serif;letter-spacing:0px;word-spacing:0px;fill:#000000;fill-opacity:1;stroke:none;stroke-width:0.26458332"
         xml:space="preserve"><tspan
           style="font-size:7.05555534px;stroke-width:0.26458332"
           y="51.274925"
           x="67.793915"
           id="tspan874-6-0"
           sodipodi:role="line">1</tspan></text>
      <text
         id="text876-06-3"
         y="51.278374"
         x="81.348869"
         style="font-style:normal;font-weight:normal;font-size:10.58333302px;line-height:1.25;font-family:sans-serif;letter-spacing:0px;word-spacing:0px;fill:#000000;fill-opacity:1;stroke:none;stroke-width:0.26458332"
         xml:space="preserve"><tspan
           style="font-size:7.05555534px;stroke-width:0.26458332"
           y="51.278374"
           x="81.348869"
           id="tspan874-2-4"
           sodipodi:role="line">9</tspan></text>
      <text
         id="text876-6-0"
         y="51.274925"
         x="95.04335"
         style="font-style:normal;font-weight:normal;font-size:10.58333302px;line-height:1.25;font-family:sans-serif;letter-spacing:0px;word-spacing:0px;fill:#000000;fill-opacity:1;stroke:none;stroke-width:0.26458332"
         xml:space="preserve"><tspan
           style="font-size:7.05555534px;stroke-width:0.26458332"
           y="51.274925"
           x="95.04335"
           id="tspan874-1-3"
           sodipodi:role="line">4</tspan></text>
      <text
         id="text876-8-9"
         y="64.90567"
         x="67.805977"
         style="font-style:normal;font-weight:normal;font-size:10.58333302px;line-height:1.25;font-family:sans-serif;letter-spacing:0px;word-spacing:0px;fill:#000000;fill-opacity:1;stroke:none;stroke-width:0.26458332"
         xml:space="preserve"><tspan
           style="font-size:7.05555534px;stroke-width:0.26458332"
           y="64.90567"
           x="67.805977"
           id="tspan874-79-1"
           sodipodi:role="line">6</tspan></text>
      <text
         id="text876-20-9"
         y="64.909119"
         x="81.436722"
         style="font-style:normal;font-weight:normal;font-size:10.58333302px;line-height:1.25;font-family:sans-serif;letter-spacing:0px;word-spacing:0px;fill:#000000;fill-opacity:1;stroke:none;stroke-width:0.26458332"
         xml:space="preserve"><tspan
           style="font-size:7.05555534px;stroke-width:0.26458332"
           y="64.909119"
           x="81.436722"
           id="tspan874-23-6"
           sodipodi:role="line">2</tspan></text>
      <text
         id="text876-7-9"
         y="64.90567"
         x="95.055412"
         style="font-style:normal;font-weight:normal;font-size:10.58333302px;line-height:1.25;font-family:sans-serif;letter-spacing:0px;word-spacing:0px;fill:#000000;fill-opacity:1;stroke:none;stroke-width:0.26458332"
         xml:space="preserve"><tspan
           style="font-size:7.05555534px;stroke-width:0.26458332"
           y="64.90567"
           x="95.055412"
           id="tspan874-5-3"
           sodipodi:role="line">8</tspan></text>
    </g>
    <g
       id="g3503"
       transform="translate(-4.1737972,-14.967094)">
      <rect
         y="78.239891"
         x="14.031653"
         height="13.630746"
         width="13.630746"
         id="rect815-80"
         style="opacity:1;fill:#ffffff;fill-opacity:1;stroke:#626262;stroke-width:0.5;stroke-miterlimit:4;stroke-dasharray:none;stroke-dashoffset:0;stroke-opacity:1" />
      <rect
         y="78.239891"
         x="27.662399"
         height="13.630746"
         width="13.630746"
         id="rect815-3-5"
         style="opacity:1;fill:#ffffff;fill-opacity:1;stroke:#626262;stroke-width:0.5;stroke-miterlimit:4;stroke-dasharray:none;stroke-dashoffset:0;stroke-opacity:1" />
      <rect
         y="78.239891"
         x="41.293144"
         height="13.630746"
         width="13.630746"
         id="rect815-6-6"
         style="opacity:1;fill:#ffffff;fill-opacity:1;stroke:#626262;stroke-width:0.5;stroke-miterlimit:4;stroke-dasharray:none;stroke-dashoffset:0;stroke-opacity:1" />
      <rect
         y="91.870636"
         x="14.031653"
         height="13.630746"
         width="13.630746"
         id="rect815-7-6"
         style="opacity:1;fill:#ffffff;fill-opacity:1;stroke:#626262;stroke-width:0.5;stroke-miterlimit:4;stroke-dasharray:none;stroke-dashoffset:0;stroke-opacity:1" />
      <rect
         y="91.870636"
         x="27.662399"
         height="13.630746"
         width="13.630746"
         id="rect815-5-40"
         style="opacity:1;fill:#ffffff;fill-opacity:1;stroke:#626262;stroke-width:0.5;stroke-miterlimit:4;stroke-dasharray:none;stroke-dashoffset:0;stroke-opacity:1" />
      <rect
         y="91.870636"
         x="41.293144"
         height="13.630746"
         width="13.630746"
         id="rect815-35-04"
         style="opacity:1;fill:#ffffff;fill-opacity:1;stroke:#626262;stroke-width:0.5;stroke-miterlimit:4;stroke-dasharray:none;stroke-dashoffset:0;stroke-opacity:1" />
      <rect
         y="105.50138"
         x="14.031651"
         height="13.630746"
         width="13.630746"
         id="rect815-62-62"
         style="opacity:1;fill:#ffffff;fill-opacity:1;stroke:#626262;stroke-width:0.5;stroke-miterlimit:4;stroke-dasharray:none;stroke-dashoffset:0;stroke-opacity:1" />
      <rect
         y="105.50138"
         x="27.662399"
         height="13.630746"
         width="13.630746"
         id="rect815-9-6"
         style="opacity:1;fill:#ffffff;fill-opacity:1;stroke:#626262;stroke-width:0.5;stroke-miterlimit:4;stroke-dasharray:none;stroke-dashoffset:0;stroke-opacity:1" />
      <rect
         y="105.50138"
         x="41.293144"
         height="13.630746"
         width="13.630746"
         id="rect815-1-7"
         style="opacity:1;fill:#ffffff;fill-opacity:1;stroke:#626262;stroke-width:0.5;stroke-miterlimit:4;stroke-dasharray:none;stroke-dashoffset:0;stroke-opacity:1" />
      <text
         id="text876-5"
         y="87.673538"
         x="18.697289"
         style="font-style:normal;font-weight:normal;font-size:10.58333302px;line-height:1.25;font-family:sans-serif;letter-spacing:0px;word-spacing:0px;fill:#000000;fill-opacity:1;stroke:none;stroke-width:0.26458332"
         xml:space="preserve"><tspan
           style="font-size:7.05555534px;stroke-width:0.26458332"
           y="87.673538"
           x="18.697289"
           id="tspan874-69"
           sodipodi:role="line">2</tspan></text>
      <text
         id="text876-2-87"
         y="87.577072"
         x="32.269466"
         style="font-style:normal;font-weight:normal;font-size:10.58333302px;line-height:1.25;font-family:sans-serif;letter-spacing:0px;word-spacing:0px;fill:#000000;fill-opacity:1;stroke:none;stroke-width:0.26458332"
         xml:space="preserve"><tspan
           style="font-size:7.05555534px;stroke-width:0.26458332"
           y="87.577072"
           x="32.269466"
           id="tspan874-7-2"
           sodipodi:role="line">6</tspan></text>
      <text
         id="text876-0-8"
         y="87.623589"
         x="45.865761"
         style="font-style:normal;font-weight:normal;font-size:10.58333302px;line-height:1.25;font-family:sans-serif;letter-spacing:0px;word-spacing:0px;fill:#000000;fill-opacity:1;stroke:none;stroke-width:0.26458332"
         xml:space="preserve"><tspan
           style="font-size:7.05555534px;stroke-width:0.26458332"
           y="87.623589"
           x="45.865761"
           id="tspan874-9-2"
           sodipodi:role="line">7</tspan></text>
      <text
         id="text876-3-9"
         y="101.25433"
         x="18.616327"
         style="font-style:normal;font-weight:normal;font-size:10.58333302px;line-height:1.25;font-family:sans-serif;letter-spacing:0px;word-spacing:0px;fill:#000000;fill-opacity:1;stroke:none;stroke-width:0.26458332"
         xml:space="preserve"><tspan
           style="font-size:7.05555534px;stroke-width:0.26458332"
           y="101.25433"
           x="18.616327"
           id="tspan874-6-9"
           sodipodi:role="line">9</tspan></text>
      <text
         id="text876-06-6"
         y="101.25777"
         x="32.17128"
         style="font-style:normal;font-weight:normal;font-size:10.58333302px;line-height:1.25;font-family:sans-serif;letter-spacing:0px;word-spacing:0px;fill:#000000;fill-opacity:1;stroke:none;stroke-width:0.26458332"
         xml:space="preserve"><tspan
           style="font-size:7.05555534px;stroke-width:0.26458332"
           y="101.25777"
           x="32.17128"
           id="tspan874-2-0"
           sodipodi:role="line">1</tspan></text>
      <text
         id="text876-6-2"
         y="101.25433"
         x="45.865761"
         style="font-style:normal;font-weight:normal;font-size:10.58333302px;line-height:1.25;font-family:sans-serif;letter-spacing:0px;word-spacing:0px;fill:#000000;fill-opacity:1;stroke:none;stroke-width:0.26458332"
         xml:space="preserve"><tspan
           style="font-size:7.05555534px;stroke-width:0.26458332"
           y="101.25433"
           x="45.865761"
           id="tspan874-1-7"
           sodipodi:role="line">5</tspan></text>
      <text
         id="text876-8-6"
         y="114.88507"
         x="18.628384"
         style="font-style:normal;font-weight:normal;font-size:10.58333302px;line-height:1.25;font-family:sans-serif;letter-spacing:0px;word-spacing:0px;fill:#000000;fill-opacity:1;stroke:none;stroke-width:0.26458332"
         xml:space="preserve"><tspan
           style="font-size:7.05555534px;stroke-width:0.26458332"
           y="114.88507"
           x="18.628384"
           id="tspan874-79-13"
           sodipodi:role="line">3</tspan></text>
      <text
         id="text876-20-2"
         y="114.88852"
         x="32.259132"
         style="font-style:normal;font-weight:normal;font-size:10.58333302px;line-height:1.25;font-family:sans-serif;letter-spacing:0px;word-spacing:0px;fill:#000000;fill-opacity:1;stroke:none;stroke-width:0.26458332"
         xml:space="preserve"><tspan
           style="font-size:7.05555534px;stroke-width:0.26458332"
           y="114.88852"
           x="32.259132"
           id="tspan874-23-1"
           sodipodi:role="line">5</tspan></text>
      <text
         id="text876-7-5"
         y="114.88507"
         x="45.877819"
         style="font-style:normal;font-weight:normal;font-size:10.58333302px;line-height:1.25;font-family:sans-serif;letter-spacing:0px;word-spacing:0px;fill:#000000;fill-opacity:1;stroke:none;stroke-width:0.26458332"
         xml:space="preserve"><tspan
           style="font-size:7.05555534px;stroke-width:0.26458332"
           y="114.88507"
           x="45.877819"
           id="tspan874-5-9"
           sodipodi:role="line">4</tspan></text>
    </g>
    <g
       id="g3474"
       transform="translate(-3.4745046,-14.967094)">
      <rect
         y="78.239891"
         x="62.674706"
         height="13.630746"
         width="13.630746"
         id="rect815-14"
         style="opacity:1;fill:#ffffff;fill-opacity:1;stroke:#626262;stroke-width:0.5;stroke-miterlimit:4;stroke-dasharray:none;stroke-dashoffset:0;stroke-opacity:1" />
      <rect
         y="78.239891"
         x="76.30545"
         height="13.630746"
         width="13.630746"
         id="rect815-3-9"
         style="opacity:1;fill:#ffffff;fill-opacity:1;stroke:#626262;stroke-width:0.5;stroke-miterlimit:4;stroke-dasharray:none;stroke-dashoffset:0;stroke-opacity:1" />
      <rect
         y="78.239891"
         x="89.936195"
         height="13.630746"
         width="13.630746"
         id="rect815-6-1"
         style="opacity:1;fill:#ffffff;fill-opacity:1;stroke:#626262;stroke-width:0.5;stroke-miterlimit:4;stroke-dasharray:none;stroke-dashoffset:0;stroke-opacity:1" />
      <rect
         y="91.870636"
         x="62.674706"
         height="13.630746"
         width="13.630746"
         id="rect815-7-0"
         style="opacity:1;fill:#ffffff;fill-opacity:1;stroke:#626262;stroke-width:0.5;stroke-miterlimit:4;stroke-dasharray:none;stroke-dashoffset:0;stroke-opacity:1" />
      <rect
         y="91.870636"
         x="76.30545"
         height="13.630746"
         width="13.630746"
         id="rect815-5-7"
         style="opacity:1;fill:#ffffff;fill-opacity:1;stroke:#626262;stroke-width:0.5;stroke-miterlimit:4;stroke-dasharray:none;stroke-dashoffset:0;stroke-opacity:1" />
      <rect
         y="91.870636"
         x="89.936195"
         height="13.630746"
         width="13.630746"
         id="rect815-35-5"
         style="opacity:1;fill:#ffffff;fill-opacity:1;stroke:#626262;stroke-width:0.5;stroke-miterlimit:4;stroke-dasharray:none;stroke-dashoffset:0;stroke-opacity:1" />
      <rect
         y="105.50138"
         x="62.674706"
         height="13.630746"
         width="13.630746"
         id="rect815-62-8"
         style="opacity:1;fill:#ffffff;fill-opacity:1;stroke:#626262;stroke-width:0.5;stroke-miterlimit:4;stroke-dasharray:none;stroke-dashoffset:0;stroke-opacity:1" />
      <rect
         y="105.50138"
         x="76.30545"
         height="13.630746"
         width="13.630746"
         id="rect815-9-7"
         style="opacity:1;fill:#ffffff;fill-opacity:1;stroke:#626262;stroke-width:0.5;stroke-miterlimit:4;stroke-dasharray:none;stroke-dashoffset:0;stroke-opacity:1" />
      <rect
         y="105.50138"
         x="89.936195"
         height="13.630746"
         width="13.630746"
         id="rect815-1-0"
         style="opacity:1;fill:#ffffff;fill-opacity:1;stroke:#626262;stroke-width:0.5;stroke-miterlimit:4;stroke-dasharray:none;stroke-dashoffset:0;stroke-opacity:1" />
      <text
         id="text876-4"
         y="87.673538"
         x="67.34034"
         style="font-style:normal;font-weight:normal;font-size:10.58333302px;line-height:1.25;font-family:sans-serif;letter-spacing:0px;word-spacing:0px;fill:#000000;fill-opacity:1;stroke:none;stroke-width:0.26458332"
         xml:space="preserve"><tspan
           style="font-size:7.05555534px;stroke-width:0.26458332"
           y="87.673538"
           x="67.34034"
           id="tspan874-8"
           sodipodi:role="line">7</tspan></text>
      <text
         id="text876-2-0"
         y="87.577072"
         x="80.912521"
         style="font-style:normal;font-weight:normal;font-size:10.58333302px;line-height:1.25;font-family:sans-serif;letter-spacing:0px;word-spacing:0px;fill:#000000;fill-opacity:1;stroke:none;stroke-width:0.26458332"
         xml:space="preserve"><tspan
           style="font-size:7.05555534px;stroke-width:0.26458332"
           y="87.577072"
           x="80.912521"
           id="tspan874-7-4"
           sodipodi:role="line">8</tspan></text>
      <text
         id="text876-0-2"
         y="87.623589"
         x="94.508812"
         style="font-style:normal;font-weight:normal;font-size:10.58333302px;line-height:1.25;font-family:sans-serif;letter-spacing:0px;word-spacing:0px;fill:#000000;fill-opacity:1;stroke:none;stroke-width:0.26458332"
         xml:space="preserve"><tspan
           style="font-size:7.05555534px;stroke-width:0.26458332"
           y="87.623589"
           x="94.508812"
           id="tspan874-9-9"
           sodipodi:role="line">4</tspan></text>
      <text
         id="text876-3-6"
         y="101.25433"
         x="67.259377"
         style="font-style:normal;font-weight:normal;font-size:10.58333302px;line-height:1.25;font-family:sans-serif;letter-spacing:0px;word-spacing:0px;fill:#000000;fill-opacity:1;stroke:none;stroke-width:0.26458332"
         xml:space="preserve"><tspan
           style="font-size:7.05555534px;stroke-width:0.26458332"
           y="101.25433"
           x="67.259377"
           id="tspan874-6-1"
           sodipodi:role="line">5</tspan></text>
      <text
         id="text876-06-0"
         y="101.25777"
         x="80.814331"
         style="font-style:normal;font-weight:normal;font-size:10.58333302px;line-height:1.25;font-family:sans-serif;letter-spacing:0px;word-spacing:0px;fill:#000000;fill-opacity:1;stroke:none;stroke-width:0.26458332"
         xml:space="preserve"><tspan
           style="font-size:7.05555534px;stroke-width:0.26458332"
           y="101.25777"
           x="80.814331"
           id="tspan874-2-42"
           sodipodi:role="line">9</tspan></text>
      <text
         id="text876-6-22"
         y="101.25433"
         x="94.508812"
         style="font-style:normal;font-weight:normal;font-size:10.58333302px;line-height:1.25;font-family:sans-serif;letter-spacing:0px;word-spacing:0px;fill:#000000;fill-opacity:1;stroke:none;stroke-width:0.26458332"
         xml:space="preserve"><tspan
           style="font-size:7.05555534px;stroke-width:0.26458332"
           y="101.25433"
           x="94.508812"
           id="tspan874-1-0"
           sodipodi:role="line">4</tspan></text>
      <text
         id="text876-8-5"
         y="114.88507"
         x="67.271439"
         style="font-style:normal;font-weight:normal;font-size:10.58333302px;line-height:1.25;font-family:sans-serif;letter-spacing:0px;word-spacing:0px;fill:#000000;fill-opacity:1;stroke:none;stroke-width:0.26458332"
         xml:space="preserve"><tspan
           style="font-size:7.05555534px;stroke-width:0.26458332"
           y="114.88507"
           x="67.271439"
           id="tspan874-79-5"
           sodipodi:role="line">2</tspan></text>
      <text
         id="text876-20-29"
         y="114.88852"
         x="80.902184"
         style="font-style:normal;font-weight:normal;font-size:10.58333302px;line-height:1.25;font-family:sans-serif;letter-spacing:0px;word-spacing:0px;fill:#000000;fill-opacity:1;stroke:none;stroke-width:0.26458332"
         xml:space="preserve"><tspan
           style="font-size:7.05555534px;stroke-width:0.26458332"
           y="114.88852"
           x="80.902184"
           id="tspan874-23-0"
           sodipodi:role="line">1</tspan></text>
      <text
         id="text876-7-2"
         y="114.88507"
         x="94.520874"
         style="font-style:normal;font-weight:normal;font-size:10.58333302px;line-height:1.25;font-family:sans-serif;letter-spacing:0px;word-spacing:0px;fill:#000000;fill-opacity:1;stroke:none;stroke-width:0.26458332"
         xml:space="preserve"><tspan
           style="font-size:7.05555534px;stroke-width:0.26458332"
           y="114.88507"
           x="94.520874"
           id="tspan874-5-8"
           sodipodi:role="line">3</tspan></text>
    </g>
    <g
       id="g3561"
       transform="translate(0,-15.506569)">
      <rect
         y="30.398647"
         x="143.39011"
         height="13.630746"
         width="13.630746"
         id="rect815-8-3"
         style="opacity:1;fill:#ffffff;fill-opacity:1;stroke:#626262;stroke-width:0.5;stroke-miterlimit:4;stroke-dasharray:none;stroke-dashoffset:0;stroke-opacity:1" />
      <rect
         y="30.398647"
         x="157.02084"
         height="13.630746"
         width="13.630746"
         id="rect815-3-4-8"
         style="opacity:1;fill:#ffffff;fill-opacity:1;stroke:#626262;stroke-width:0.5;stroke-miterlimit:4;stroke-dasharray:none;stroke-dashoffset:0;stroke-opacity:1" />
      <rect
         y="30.398649"
         x="170.6516"
         height="13.630746"
         width="13.630746"
         id="rect815-6-7-0"
         style="opacity:1;fill:#ffffff;fill-opacity:1;stroke:#626262;stroke-width:0.5;stroke-miterlimit:4;stroke-dasharray:none;stroke-dashoffset:0;stroke-opacity:1" />
      <rect
         y="44.029392"
         x="143.39011"
         height="13.630746"
         width="13.630746"
         id="rect815-7-2-4"
         style="opacity:1;fill:#ffffff;fill-opacity:1;stroke:#626262;stroke-width:0.5;stroke-miterlimit:4;stroke-dasharray:none;stroke-dashoffset:0;stroke-opacity:1" />
      <rect
         y="44.029392"
         x="157.02084"
         height="13.630746"
         width="13.630746"
         id="rect815-5-4-0"
         style="opacity:1;fill:#ffffff;fill-opacity:1;stroke:#626262;stroke-width:0.5;stroke-miterlimit:4;stroke-dasharray:none;stroke-dashoffset:0;stroke-opacity:1" />
      <rect
         y="44.029392"
         x="170.6516"
         height="13.630746"
         width="13.630746"
         id="rect815-35-0-9"
         style="opacity:1;fill:#ffffff;fill-opacity:1;stroke:#626262;stroke-width:0.5;stroke-miterlimit:4;stroke-dasharray:none;stroke-dashoffset:0;stroke-opacity:1" />
      <rect
         y="57.660137"
         x="143.39011"
         height="13.630746"
         width="13.630746"
         id="rect815-62-6-1"
         style="opacity:1;fill:#ffffff;fill-opacity:1;stroke:#626262;stroke-width:0.5;stroke-miterlimit:4;stroke-dasharray:none;stroke-dashoffset:0;stroke-opacity:1" />
      <rect
         y="57.660137"
         x="157.02084"
         height="13.630746"
         width="13.630746"
         id="rect815-9-2-9"
         style="opacity:1;fill:#ffffff;fill-opacity:1;stroke:#626262;stroke-width:0.5;stroke-miterlimit:4;stroke-dasharray:none;stroke-dashoffset:0;stroke-opacity:1" />
      <rect
         y="57.660137"
         x="170.6516"
         height="13.630746"
         width="13.630746"
         id="rect815-1-9-6"
         style="opacity:1;fill:#ffffff;fill-opacity:1;stroke:#626262;stroke-width:0.5;stroke-miterlimit:4;stroke-dasharray:none;stroke-dashoffset:0;stroke-opacity:1" />
      <text
         id="text876-9-2"
         y="39.832291"
         x="148.05574"
         style="font-style:normal;font-weight:normal;font-size:10.58333302px;line-height:1.25;font-family:sans-serif;letter-spacing:0px;word-spacing:0px;fill:#000000;fill-opacity:1;stroke:none;stroke-width:0.26458332"
         xml:space="preserve"><tspan
           style="font-size:7.05555534px;stroke-width:0.26458332"
           y="39.832291"
           x="148.05574"
           id="tspan874-0-5"
           sodipodi:role="line">7</tspan></text>
      <text
         id="text876-2-8-4"
         y="39.735828"
         x="161.62791"
         style="font-style:normal;font-weight:normal;font-size:10.58333302px;line-height:1.25;font-family:sans-serif;letter-spacing:0px;word-spacing:0px;fill:#000000;fill-opacity:1;stroke:none;stroke-width:0.26458332"
         xml:space="preserve"><tspan
           style="font-size:7.05555534px;stroke-width:0.26458332"
           y="39.735828"
           x="161.62791"
           id="tspan874-7-1-4"
           sodipodi:role="line">8</tspan></text>
      <text
         id="text876-0-3-9"
         y="39.782341"
         x="175.2242"
         style="font-style:normal;font-weight:normal;font-size:10.58333302px;line-height:1.25;font-family:sans-serif;letter-spacing:0px;word-spacing:0px;fill:#000000;fill-opacity:1;stroke:none;stroke-width:0.26458332"
         xml:space="preserve"><tspan
           style="font-size:7.05555534px;stroke-width:0.26458332"
           y="39.782341"
           x="175.2242"
           id="tspan874-9-1-9"
           sodipodi:role="line">8</tspan></text>
      <text
         id="text876-3-1-3"
         y="53.413082"
         x="147.97478"
         style="font-style:normal;font-weight:normal;font-size:10.58333302px;line-height:1.25;font-family:sans-serif;letter-spacing:0px;word-spacing:0px;fill:#000000;fill-opacity:1;stroke:none;stroke-width:0.26458332"
         xml:space="preserve"><tspan
           style="font-size:7.05555534px;stroke-width:0.26458332"
           y="53.413082"
           x="147.97478"
           id="tspan874-6-0-6"
           sodipodi:role="line">9</tspan></text>
      <text
         id="text876-06-3-0"
         y="53.416531"
         x="161.52972"
         style="font-style:normal;font-weight:normal;font-size:10.58333302px;line-height:1.25;font-family:sans-serif;letter-spacing:0px;word-spacing:0px;fill:#000000;fill-opacity:1;stroke:none;stroke-width:0.26458332"
         xml:space="preserve"><tspan
           style="font-size:7.05555534px;stroke-width:0.26458332"
           y="53.416531"
           x="161.52972"
           id="tspan874-2-4-5"
           sodipodi:role="line">9</tspan></text>
      <text
         id="text876-6-0-0"
         y="53.413082"
         x="175.2242"
         style="font-style:normal;font-weight:normal;font-size:10.58333302px;line-height:1.25;font-family:sans-serif;letter-spacing:0px;word-spacing:0px;fill:#000000;fill-opacity:1;stroke:none;stroke-width:0.26458332"
         xml:space="preserve"><tspan
           style="font-size:7.05555534px;stroke-width:0.26458332"
           y="53.413082"
           x="175.2242"
           id="tspan874-1-3-2"
           sodipodi:role="line">5</tspan></text>
      <text
         id="text876-8-9-9"
         y="67.043823"
         x="147.98683"
         style="font-style:normal;font-weight:normal;font-size:10.58333302px;line-height:1.25;font-family:sans-serif;letter-spacing:0px;word-spacing:0px;fill:#000000;fill-opacity:1;stroke:none;stroke-width:0.26458332"
         xml:space="preserve"><tspan
           style="font-size:7.05555534px;stroke-width:0.26458332"
           y="67.043823"
           x="147.98683"
           id="tspan874-79-1-4"
           sodipodi:role="line">9</tspan></text>
      <text
         id="text876-20-9-3"
         y="67.047272"
         x="161.61758"
         style="font-style:normal;font-weight:normal;font-size:10.58333302px;line-height:1.25;font-family:sans-serif;letter-spacing:0px;word-spacing:0px;fill:#000000;fill-opacity:1;stroke:none;stroke-width:0.26458332"
         xml:space="preserve"><tspan
           style="font-size:7.05555534px;stroke-width:0.26458332"
           y="67.047272"
           x="161.61758"
           id="tspan874-23-6-5"
           sodipodi:role="line">5</tspan></text>
      <text
         id="text876-7-9-1"
         y="67.043823"
         x="175.23627"
         style="font-style:normal;font-weight:normal;font-size:10.58333302px;line-height:1.25;font-family:sans-serif;letter-spacing:0px;word-spacing:0px;fill:#000000;fill-opacity:1;stroke:none;stroke-width:0.26458332"
         xml:space="preserve"><tspan
           style="font-size:7.05555534px;stroke-width:0.26458332"
           y="67.043823"
           x="175.23627"
           id="tspan874-5-3-7"
           sodipodi:role="line">8</tspan></text>
    </g>
    <g
       id="g3532"
       transform="translate(4.2763214,-15.501632)">
      <rect
         y="78.774429"
         x="139.11378"
         height="13.630746"
         width="13.630746"
         id="rect815-8-3-4"
         style="opacity:1;fill:#ffffff;fill-opacity:1;stroke:#626262;stroke-width:0.5;stroke-miterlimit:4;stroke-dasharray:none;stroke-dashoffset:0;stroke-opacity:1" />
      <rect
         y="78.774429"
         x="152.74452"
         height="13.630746"
         width="13.630746"
         id="rect815-3-4-8-3"
         style="opacity:1;fill:#ffffff;fill-opacity:1;stroke:#626262;stroke-width:0.5;stroke-miterlimit:4;stroke-dasharray:none;stroke-dashoffset:0;stroke-opacity:1" />
      <rect
         y="78.774429"
         x="166.37527"
         height="13.630746"
         width="13.630746"
         id="rect815-6-7-0-1"
         style="opacity:1;fill:#ffffff;fill-opacity:1;stroke:#626262;stroke-width:0.5;stroke-miterlimit:4;stroke-dasharray:none;stroke-dashoffset:0;stroke-opacity:1" />
      <rect
         y="92.405174"
         x="139.11378"
         height="13.630746"
         width="13.630746"
         id="rect815-7-2-4-4"
         style="opacity:1;fill:#ffffff;fill-opacity:1;stroke:#626262;stroke-width:0.5;stroke-miterlimit:4;stroke-dasharray:none;stroke-dashoffset:0;stroke-opacity:1" />
      <rect
         y="92.405174"
         x="152.74452"
         height="13.630746"
         width="13.630746"
         id="rect815-5-4-0-6"
         style="opacity:1;fill:#ffffff;fill-opacity:1;stroke:#626262;stroke-width:0.5;stroke-miterlimit:4;stroke-dasharray:none;stroke-dashoffset:0;stroke-opacity:1" />
      <rect
         y="92.405174"
         x="166.37527"
         height="13.630746"
         width="13.630746"
         id="rect815-35-0-9-9"
         style="opacity:1;fill:#ffffff;fill-opacity:1;stroke:#626262;stroke-width:0.5;stroke-miterlimit:4;stroke-dasharray:none;stroke-dashoffset:0;stroke-opacity:1" />
      <rect
         y="106.03592"
         x="139.11378"
         height="13.630746"
         width="13.630746"
         id="rect815-62-6-1-4"
         style="opacity:1;fill:#ffffff;fill-opacity:1;stroke:#626262;stroke-width:0.5;stroke-miterlimit:4;stroke-dasharray:none;stroke-dashoffset:0;stroke-opacity:1" />
      <rect
         y="106.03592"
         x="152.74452"
         height="13.630746"
         width="13.630746"
         id="rect815-9-2-9-2"
         style="opacity:1;fill:#ffffff;fill-opacity:1;stroke:#626262;stroke-width:0.5;stroke-miterlimit:4;stroke-dasharray:none;stroke-dashoffset:0;stroke-opacity:1" />
      <rect
         y="106.03592"
         x="166.37527"
         height="13.630746"
         width="13.630746"
         id="rect815-1-9-6-2"
         style="opacity:1;fill:#ffffff;fill-opacity:1;stroke:#626262;stroke-width:0.5;stroke-miterlimit:4;stroke-dasharray:none;stroke-dashoffset:0;stroke-opacity:1" />
      <text
         id="text876-9-2-6"
         y="87.647217"
         x="144.15425"
         style="font-style:normal;font-weight:normal;font-size:10.58333302px;line-height:1.25;font-family:sans-serif;letter-spacing:0px;word-spacing:0px;fill:#000000;fill-opacity:1;stroke:none;stroke-width:0.26458332"
         xml:space="preserve"><tspan
           style="font-size:5.64444447px;stroke-width:0.26458332"
           y="87.647217"
           x="144.15425"
           id="tspan874-0-5-4"
           sodipodi:role="line">4</tspan></text>
      <text
         id="text876-2-8-4-1"
         y="87.607246"
         x="155.10057"
         style="font-style:normal;font-weight:normal;font-size:10.58333302px;line-height:1.25;font-family:sans-serif;letter-spacing:0px;word-spacing:0px;fill:#000000;fill-opacity:1;stroke:none;stroke-width:0.26458332"
         xml:space="preserve"><tspan
           style="font-size:5.64444447px;stroke-width:0.26458332"
           y="87.607246"
           x="155.10057"
           id="tspan874-7-1-4-2"
           sodipodi:role="line">5.5</tspan></text>
      <text
         id="text876-0-3-9-8"
         y="87.644455"
         x="166.93573"
         style="font-style:normal;font-weight:normal;font-size:10.58333302px;line-height:1.25;font-family:sans-serif;letter-spacing:0px;word-spacing:0px;fill:#000000;fill-opacity:1;stroke:none;stroke-width:0.26458332"
         xml:space="preserve"><tspan
           style="font-size:5.64444447px;stroke-width:0.26458332"
           y="87.644455"
           x="166.93573"
           id="tspan874-9-1-9-8"
           sodipodi:role="line">5.25</tspan></text>
      <text
         id="text876-3-1-3-9"
         y="101.23799"
         x="141.54976"
         style="font-style:normal;font-weight:normal;font-size:10.58333302px;line-height:1.25;font-family:sans-serif;letter-spacing:0px;word-spacing:0px;fill:#000000;fill-opacity:1;stroke:none;stroke-width:0.26458332"
         xml:space="preserve"><tspan
           style="font-size:5.64444447px;stroke-width:0.26458332"
           y="101.23799"
           x="141.54976"
           id="tspan874-6-0-6-2"
           sodipodi:role="line">4.5</tspan></text>
      <text
         id="text876-06-3-0-8"
         y="101.23799"
         x="157.79324"
         style="font-style:normal;font-weight:normal;font-size:10.58333302px;line-height:1.25;font-family:sans-serif;letter-spacing:0px;word-spacing:0px;fill:#000000;fill-opacity:1;stroke:none;stroke-width:0.26458332"
         xml:space="preserve"><tspan
           style="font-size:5.64444447px;stroke-width:0.26458332"
           y="101.23799"
           x="157.79324"
           id="tspan874-2-4-5-8"
           sodipodi:role="line">5</tspan></text>
      <text
         id="text876-6-0-0-8"
         y="101.2752"
         x="166.93849"
         style="font-style:normal;font-weight:normal;font-size:10.58333302px;line-height:1.25;font-family:sans-serif;letter-spacing:0px;word-spacing:0px;fill:#000000;fill-opacity:1;stroke:none;stroke-width:0.26458332"
         xml:space="preserve"><tspan
           style="font-size:5.64444447px;stroke-width:0.26458332"
           y="101.2752"
           x="166.93849"
           id="tspan874-1-3-2-6"
           sodipodi:role="line">3.25</tspan></text>
      <text
         id="text876-8-9-9-8"
         y="114.86874"
         x="144.16251"
         style="font-style:normal;font-weight:normal;font-size:10.58333302px;line-height:1.25;font-family:sans-serif;letter-spacing:0px;word-spacing:0px;fill:#000000;fill-opacity:1;stroke:none;stroke-width:0.26458332"
         xml:space="preserve"><tspan
           style="font-size:5.64444447px;stroke-width:0.26458332"
           y="114.86874"
           x="144.16251"
           id="tspan874-79-1-4-3"
           sodipodi:role="line">5</tspan></text>
      <text
         id="text876-20-9-3-8"
         y="114.90594"
         x="157.77533"
         style="font-style:normal;font-weight:normal;font-size:10.58333302px;line-height:1.25;font-family:sans-serif;letter-spacing:0px;word-spacing:0px;fill:#000000;fill-opacity:1;stroke:none;stroke-width:0.26458332"
         xml:space="preserve"><tspan
           style="font-size:5.64444447px;stroke-width:0.26458332"
           y="114.90594"
           x="157.77533"
           id="tspan874-23-6-5-3"
           sodipodi:role="line">3</tspan></text>
      <text
         id="text876-7-9-1-3"
         y="114.86874"
         x="168.81125"
         style="font-style:normal;font-weight:normal;font-size:10.58333302px;line-height:1.25;font-family:sans-serif;letter-spacing:0px;word-spacing:0px;fill:#000000;fill-opacity:1;stroke:none;stroke-width:0.26458332"
         xml:space="preserve"><tspan
           style="font-size:5.64444447px;fill:#000000;fill-opacity:1;stroke-width:0.26458332"
           y="114.86874"
           x="168.81125"
           id="tspan874-5-3-7-3"
           sodipodi:role="line">4.5</tspan></text>
    </g>
    <text
       xml:space="preserve"
       style="font-style:normal;font-weight:normal;font-size:10.58333302px;line-height:1.25;font-family:sans-serif;letter-spacing:0px;word-spacing:0px;fill:#000000;fill-opacity:1;stroke:none;stroke-width:0.26458332"
       x="26.328213"
       y="11.556142"
       id="text3567"><tspan
         sodipodi:role="line"
         id="tspan3565"
         x="26.328213"
         y="11.556142"
         style="font-style:normal;font-variant:normal;font-weight:bold;font-stretch:normal;font-size:5.64444447px;font-family:sans-serif;-inkscape-font-specification:'sans-serif Bold';fill:#ffffff;fill-opacity:1;stroke-width:0.26458332">Rasters en entrée</tspan></text>
    <text
       xml:space="preserve"
       style="font-style:normal;font-weight:normal;font-size:10.58333302px;line-height:1.25;font-family:sans-serif;letter-spacing:0px;word-spacing:0px;fill:#000000;fill-opacity:1;stroke:none;stroke-width:0.26458332"
       x="119.74928"
       y="12.169785"
       id="text3567-1"><tspan
         sodipodi:role="line"
         id="tspan3565-5"
         x="119.74928"
         y="12.169785"
         style="font-style:normal;font-variant:normal;font-weight:bold;font-stretch:normal;font-size:5.64444447px;font-family:sans-serif;-inkscape-font-specification:'sans-serif Bold';fill:#ffffff;fill-opacity:1;stroke-width:0.26458332">Stat. multi bandes</tspan></text>
    <text
       xml:space="preserve"
       style="font-style:normal;font-weight:normal;font-size:10.58333302px;line-height:1.25;font-family:sans-serif;letter-spacing:0px;word-spacing:0px;fill:#000000;fill-opacity:1;stroke:none;stroke-width:0.26458332"
       x="127.36206"
       y="37.355644"
       id="text3567-1-4"><tspan
         sodipodi:role="line"
         id="tspan3565-5-1"
         x="127.36206"
         y="37.355644"
         style="font-style:normal;font-variant:normal;font-weight:bold;font-stretch:normal;font-size:5.64444447px;font-family:sans-serif;-inkscape-font-specification:'sans-serif Bold';fill:#000000;fill-opacity:1;stroke-width:0.26458332">Max</tspan></text>
    <text
       xml:space="preserve"
       style="font-style:normal;font-weight:normal;font-size:10.58333302px;line-height:1.25;font-family:sans-serif;letter-spacing:0px;word-spacing:0px;fill:#000000;fill-opacity:1;stroke:none;stroke-width:0.26458332"
       x="111.74889"
       y="85.167236"
       id="text3567-1-4-5"><tspan
         sodipodi:role="line"
         id="tspan3565-5-1-5"
         x="111.74889"
         y="85.167236"
         style="font-style:normal;font-variant:normal;font-weight:bold;font-stretch:normal;font-size:5.64444447px;font-family:sans-serif;-inkscape-font-specification:'sans-serif Bold';fill:#000000;fill-opacity:1;stroke-width:0.26458332">Moyenne</tspan></text>
  </g>
</svg>
