<?xml version="1.0" encoding="UTF-8" standalone="no"?>
<!-- Created with Inkscape (http://www.inkscape.org/) -->

<svg
   xmlns:dc="http://purl.org/dc/elements/1.1/"
   xmlns:cc="http://creativecommons.org/ns#"
   xmlns:rdf="http://www.w3.org/1999/02/22-rdf-syntax-ns#"
   xmlns:svg="http://www.w3.org/2000/svg"
   xmlns="http://www.w3.org/2000/svg"
   xmlns:sodipodi="http://sodipodi.sourceforge.net/DTD/sodipodi-0.dtd"
   xmlns:inkscape="http://www.inkscape.org/namespaces/inkscape"
   width="181.11343mm"
   height="124.08435mm"
   viewBox="0 0 181.11343 124.08435"
   version="1.1"
   id="svg8"
   inkscape:version="0.92.5 (2060ec1f9f, 2020-04-08)"
   sodipodi:docname="raster_principes.svg"
   inkscape:export-filename="/home/poulpe/Enseignement/fiches_focus_online/BriquesDeGeomatique/figures/fig_raster_principe.png"
   inkscape:export-xdpi="150"
   inkscape:export-ydpi="150">
  <defs
     id="defs2">
    <marker
       inkscape:isstock="true"
       style="overflow:visible"
       id="marker1578"
       refX="0"
       refY="0"
       orient="auto"
       inkscape:stockid="Arrow1Mend">
      <path
         transform="matrix(-0.4,0,0,-0.4,-4,0)"
         style="fill:#000000;fill-opacity:1;fill-rule:evenodd;stroke:#000000;stroke-width:1.00000003pt;stroke-opacity:1"
         d="M 0,0 5,-5 -12.5,0 5,5 Z"
         id="path1576"
         inkscape:connector-curvature="0" />
    </marker>
    <marker
       inkscape:stockid="Arrow1Mend"
       orient="auto"
       refY="0"
       refX="0"
       id="marker1482"
       style="overflow:visible"
       inkscape:isstock="true">
      <path
         id="path1480"
         d="M 0,0 5,-5 -12.5,0 5,5 Z"
         style="fill:#000000;fill-opacity:1;fill-rule:evenodd;stroke:#000000;stroke-width:1.00000003pt;stroke-opacity:1"
         transform="matrix(-0.4,0,0,-0.4,-4,0)"
         inkscape:connector-curvature="0" />
    </marker>
    <marker
       inkscape:stockid="Arrow1Mstart"
       orient="auto"
       refY="0"
       refX="0"
       id="marker1448"
       style="overflow:visible"
       inkscape:isstock="true">
      <path
         id="path1446"
         d="M 0,0 5,-5 -12.5,0 5,5 Z"
         style="fill:#000000;fill-opacity:1;fill-rule:evenodd;stroke:#000000;stroke-width:1.00000003pt;stroke-opacity:1"
         transform="matrix(0.4,0,0,0.4,4,0)"
         inkscape:connector-curvature="0" />
    </marker>
    <marker
       inkscape:stockid="Arrow1Mstart"
       orient="auto"
       refY="0"
       refX="0"
       id="Arrow1Mstart"
       style="overflow:visible"
       inkscape:isstock="true">
      <path
         id="path1136"
         d="M 0,0 5,-5 -12.5,0 5,5 Z"
         style="fill:#000000;fill-opacity:1;fill-rule:evenodd;stroke:#000000;stroke-width:1.00000003pt;stroke-opacity:1"
         transform="matrix(0.4,0,0,0.4,4,0)"
         inkscape:connector-curvature="0" />
    </marker>
    <marker
       inkscape:stockid="Arrow1Mend"
       orient="auto"
       refY="0"
       refX="0"
       id="Arrow1Mend"
       style="overflow:visible"
       inkscape:isstock="true"
       inkscape:collect="always">
      <path
         id="path1139"
         d="M 0,0 5,-5 -12.5,0 5,5 Z"
         style="fill:#000000;fill-opacity:1;fill-rule:evenodd;stroke:#000000;stroke-width:1.00000003pt;stroke-opacity:1"
         transform="matrix(-0.4,0,0,-0.4,-4,0)"
         inkscape:connector-curvature="0" />
    </marker>
  </defs>
  <sodipodi:namedview
     id="base"
     pagecolor="#ffffff"
     bordercolor="#666666"
     borderopacity="1.0"
     inkscape:pageopacity="0.0"
     inkscape:pageshadow="2"
     inkscape:zoom="0.7"
     inkscape:cx="360.33566"
     inkscape:cy="171.53435"
     inkscape:document-units="mm"
     inkscape:current-layer="layer1"
     showgrid="false"
     inkscape:window-width="1920"
     inkscape:window-height="1011"
     inkscape:window-x="0"
     inkscape:window-y="0"
     inkscape:window-maximized="1"
     fit-margin-top="0"
     fit-margin-left="0"
     fit-margin-right="0"
     fit-margin-bottom="0" />
  <metadata
     id="metadata5">
    <rdf:RDF>
      <cc:Work
         rdf:about="">
        <dc:format>image/svg+xml</dc:format>
        <dc:type
           rdf:resource="http://purl.org/dc/dcmitype/StillImage" />
        <dc:title></dc:title>
      </cc:Work>
    </rdf:RDF>
  </metadata>
  <g
     inkscape:label="Calque 1"
     inkscape:groupmode="layer"
     id="layer1"
     transform="translate(-15.84015,-70.134112)">
    <g
       id="g1126"
       transform="translate(6.4255952,6.4255952)"
       style="stroke:#989898;stroke-opacity:1">
      <g
         id="g890"
         style="stroke:#989898;stroke-opacity:1">
        <rect
           style="fill:#ffffff;fill-opacity:1;stroke:#989898;stroke-width:0.64999998;stroke-miterlimit:4;stroke-dasharray:none;stroke-opacity:1"
           id="rect815"
           width="13.985119"
           height="13.985119"
           x="23.434523"
           y="77.01786" />
        <rect
           style="fill:#ffffff;fill-opacity:1;stroke:#989898;stroke-width:0.64999998;stroke-miterlimit:4;stroke-dasharray:none;stroke-opacity:1"
           id="rect815-3"
           width="13.985119"
           height="13.985119"
           x="37.41964"
           y="77.01786" />
        <rect
           style="fill:#ffffff;fill-opacity:1;stroke:#989898;stroke-width:0.64999998;stroke-miterlimit:4;stroke-dasharray:none;stroke-opacity:1"
           id="rect815-6"
           width="13.985119"
           height="13.985119"
           x="51.404758"
           y="77.01786" />
        <rect
           style="fill:#ffffff;fill-opacity:1;stroke:#989898;stroke-width:0.64999998;stroke-miterlimit:4;stroke-dasharray:none;stroke-opacity:1"
           id="rect815-7"
           width="13.985119"
           height="13.985119"
           x="65.389877"
           y="77.01786" />
        <rect
           style="fill:#ffffff;fill-opacity:1;stroke:#989898;stroke-width:0.64999998;stroke-miterlimit:4;stroke-dasharray:none;stroke-opacity:1"
           id="rect815-5"
           width="13.985119"
           height="13.985119"
           x="79.375"
           y="77.01786" />
        <rect
           style="fill:#ffffff;fill-opacity:1;stroke:#989898;stroke-width:0.64999998;stroke-miterlimit:4;stroke-dasharray:none;stroke-opacity:1"
           id="rect815-35"
           width="13.985119"
           height="13.985119"
           x="93.360123"
           y="77.01786" />
        <rect
           style="fill:#ffffff;fill-opacity:1;stroke:#989898;stroke-width:0.64999998;stroke-miterlimit:4;stroke-dasharray:none;stroke-opacity:1"
           id="rect815-62"
           width="13.985119"
           height="13.985119"
           x="107.34525"
           y="77.01786" />
        <rect
           style="fill:#ffffff;fill-opacity:1;stroke:#989898;stroke-width:0.64999998;stroke-miterlimit:4;stroke-dasharray:none;stroke-opacity:1"
           id="rect815-9"
           width="13.985119"
           height="13.985119"
           x="121.33037"
           y="77.01786" />
        <rect
           style="fill:#ffffff;fill-opacity:1;stroke:#989898;stroke-width:0.64999998;stroke-miterlimit:4;stroke-dasharray:none;stroke-opacity:1"
           id="rect815-1"
           width="13.985119"
           height="13.985119"
           x="149.30061"
           y="77.017853" />
        <rect
           style="fill:#ffffff;fill-opacity:1;stroke:#989898;stroke-width:0.64999998;stroke-miterlimit:4;stroke-dasharray:none;stroke-opacity:1"
           id="rect815-2"
           width="13.985119"
           height="13.985119"
           x="135.31549"
           y="77.01786" />
      </g>
      <g
         id="g890-7"
         transform="translate(0,13.985115)"
         style="stroke:#989898;stroke-opacity:1">
        <rect
           style="fill:#ffffff;fill-opacity:1;stroke:#989898;stroke-width:0.64999998;stroke-miterlimit:4;stroke-dasharray:none;stroke-opacity:1"
           id="rect815-0"
           width="13.985119"
           height="13.985119"
           x="23.434523"
           y="77.01786" />
        <rect
           style="fill:#ffffff;fill-opacity:1;stroke:#989898;stroke-width:0.64999998;stroke-miterlimit:4;stroke-dasharray:none;stroke-opacity:1"
           id="rect815-3-9"
           width="13.985119"
           height="13.985119"
           x="37.41964"
           y="77.01786" />
        <rect
           style="fill:#ffffff;fill-opacity:1;stroke:#989898;stroke-width:0.64999998;stroke-miterlimit:4;stroke-dasharray:none;stroke-opacity:1"
           id="rect815-6-3"
           width="13.985119"
           height="13.985119"
           x="51.404758"
           y="77.01786" />
        <rect
           style="fill:#ffffff;fill-opacity:1;stroke:#989898;stroke-width:0.64999998;stroke-miterlimit:4;stroke-dasharray:none;stroke-opacity:1"
           id="rect815-7-6"
           width="13.985119"
           height="13.985119"
           x="65.389877"
           y="77.01786" />
        <rect
           style="fill:#ffffff;fill-opacity:1;stroke:#989898;stroke-width:0.64999998;stroke-miterlimit:4;stroke-dasharray:none;stroke-opacity:1"
           id="rect815-5-0"
           width="13.985119"
           height="13.985119"
           x="79.375"
           y="77.01786" />
        <rect
           style="fill:#ffffff;fill-opacity:1;stroke:#989898;stroke-width:0.64999998;stroke-miterlimit:4;stroke-dasharray:none;stroke-opacity:1"
           id="rect815-35-6"
           width="13.985119"
           height="13.985119"
           x="93.360123"
           y="77.01786" />
        <rect
           style="fill:#ffffff;fill-opacity:1;stroke:#989898;stroke-width:0.64999998;stroke-miterlimit:4;stroke-dasharray:none;stroke-opacity:1"
           id="rect815-62-2"
           width="13.985119"
           height="13.985119"
           x="107.34525"
           y="77.01786" />
        <rect
           style="fill:#ffffff;fill-opacity:1;stroke:#989898;stroke-width:0.64999998;stroke-miterlimit:4;stroke-dasharray:none;stroke-opacity:1"
           id="rect815-9-6"
           width="13.985119"
           height="13.985119"
           x="121.33037"
           y="77.01786" />
        <rect
           style="fill:#ffffff;fill-opacity:1;stroke:#989898;stroke-width:0.64999998;stroke-miterlimit:4;stroke-dasharray:none;stroke-opacity:1"
           id="rect815-1-1"
           width="13.985119"
           height="13.985119"
           x="149.30061"
           y="77.017853" />
        <rect
           style="fill:#ffffff;fill-opacity:1;stroke:#989898;stroke-width:0.64999998;stroke-miterlimit:4;stroke-dasharray:none;stroke-opacity:1"
           id="rect815-2-8"
           width="13.985119"
           height="13.985119"
           x="135.31549"
           y="77.01786" />
      </g>
      <g
         id="g890-79"
         transform="translate(0,27.97023)"
         style="stroke:#989898;stroke-opacity:1">
        <rect
           style="fill:#ffffff;fill-opacity:1;stroke:#989898;stroke-width:0.64999998;stroke-miterlimit:4;stroke-dasharray:none;stroke-opacity:1"
           id="rect815-20"
           width="13.985119"
           height="13.985119"
           x="23.434523"
           y="77.01786" />
        <rect
           style="fill:#ffffff;fill-opacity:1;stroke:#989898;stroke-width:0.64999998;stroke-miterlimit:4;stroke-dasharray:none;stroke-opacity:1"
           id="rect815-3-2"
           width="13.985119"
           height="13.985119"
           x="37.41964"
           y="77.01786" />
        <rect
           style="fill:#ffffff;fill-opacity:1;stroke:#989898;stroke-width:0.64999998;stroke-miterlimit:4;stroke-dasharray:none;stroke-opacity:1"
           id="rect815-6-37"
           width="13.985119"
           height="13.985119"
           x="51.404758"
           y="77.01786" />
        <rect
           style="fill:#ffffff;fill-opacity:1;stroke:#989898;stroke-width:0.64999998;stroke-miterlimit:4;stroke-dasharray:none;stroke-opacity:1"
           id="rect815-7-5"
           width="13.985119"
           height="13.985119"
           x="65.389877"
           y="77.01786" />
        <rect
           style="fill:#ffffff;fill-opacity:1;stroke:#989898;stroke-width:0.64999998;stroke-miterlimit:4;stroke-dasharray:none;stroke-opacity:1"
           id="rect815-5-9"
           width="13.985119"
           height="13.985119"
           x="79.375"
           y="77.01786" />
        <rect
           style="fill:#ffffff;fill-opacity:1;stroke:#989898;stroke-width:0.64999998;stroke-miterlimit:4;stroke-dasharray:none;stroke-opacity:1"
           id="rect815-35-2"
           width="13.985119"
           height="13.985119"
           x="93.360123"
           y="77.01786" />
        <rect
           style="fill:#ffffff;fill-opacity:1;stroke:#989898;stroke-width:0.64999998;stroke-miterlimit:4;stroke-dasharray:none;stroke-opacity:1"
           id="rect815-62-28"
           width="13.985119"
           height="13.985119"
           x="107.34525"
           y="77.01786" />
        <rect
           style="fill:#ffffff;fill-opacity:1;stroke:#989898;stroke-width:0.64999998;stroke-miterlimit:4;stroke-dasharray:none;stroke-opacity:1"
           id="rect815-9-9"
           width="13.985119"
           height="13.985119"
           x="121.33037"
           y="77.01786" />
        <rect
           style="fill:#ffffff;fill-opacity:1;stroke:#989898;stroke-width:0.64999998;stroke-miterlimit:4;stroke-dasharray:none;stroke-opacity:1"
           id="rect815-1-7"
           width="13.985119"
           height="13.985119"
           x="149.30061"
           y="77.017853" />
        <rect
           style="fill:#ffffff;fill-opacity:1;stroke:#989898;stroke-width:0.64999998;stroke-miterlimit:4;stroke-dasharray:none;stroke-opacity:1"
           id="rect815-2-3"
           width="13.985119"
           height="13.985119"
           x="135.31549"
           y="77.01786" />
      </g>
      <g
         id="g890-6"
         transform="translate(0,41.955345)"
         style="stroke:#989898;stroke-opacity:1">
        <rect
           style="fill:#ffffff;fill-opacity:1;stroke:#989898;stroke-width:0.64999998;stroke-miterlimit:4;stroke-dasharray:none;stroke-opacity:1"
           id="rect815-12"
           width="13.985119"
           height="13.985119"
           x="23.434523"
           y="77.01786" />
        <rect
           style="fill:#ffffff;fill-opacity:1;stroke:#989898;stroke-width:0.64999998;stroke-miterlimit:4;stroke-dasharray:none;stroke-opacity:1"
           id="rect815-3-93"
           width="13.985119"
           height="13.985119"
           x="37.41964"
           y="77.01786" />
        <rect
           style="fill:#ffffff;fill-opacity:1;stroke:#989898;stroke-width:0.64999998;stroke-miterlimit:4;stroke-dasharray:none;stroke-opacity:1"
           id="rect815-6-1"
           width="13.985119"
           height="13.985119"
           x="51.404758"
           y="77.01786" />
        <rect
           style="fill:#ffffff;fill-opacity:1;stroke:#989898;stroke-width:0.64999998;stroke-miterlimit:4;stroke-dasharray:none;stroke-opacity:1"
           id="rect815-7-9"
           width="13.985119"
           height="13.985119"
           x="65.389877"
           y="77.01786" />
        <rect
           style="fill:#ffffff;fill-opacity:1;stroke:#989898;stroke-width:0.64999998;stroke-miterlimit:4;stroke-dasharray:none;stroke-opacity:1"
           id="rect815-5-4"
           width="13.985119"
           height="13.985119"
           x="79.375"
           y="77.01786" />
        <rect
           style="fill:#ffffff;fill-opacity:1;stroke:#989898;stroke-width:0.64999998;stroke-miterlimit:4;stroke-dasharray:none;stroke-opacity:1"
           id="rect815-35-7"
           width="13.985119"
           height="13.985119"
           x="93.360123"
           y="77.01786" />
        <rect
           style="fill:#ffffff;fill-opacity:1;stroke:#989898;stroke-width:0.64999998;stroke-miterlimit:4;stroke-dasharray:none;stroke-opacity:1"
           id="rect815-62-8"
           width="13.985119"
           height="13.985119"
           x="107.34525"
           y="77.01786" />
        <rect
           style="fill:#ffffff;fill-opacity:1;stroke:#989898;stroke-width:0.64999998;stroke-miterlimit:4;stroke-dasharray:none;stroke-opacity:1"
           id="rect815-9-4"
           width="13.985119"
           height="13.985119"
           x="121.33037"
           y="77.01786" />
        <rect
           style="fill:#ffffff;fill-opacity:1;stroke:#989898;stroke-width:0.64999998;stroke-miterlimit:4;stroke-dasharray:none;stroke-opacity:1"
           id="rect815-1-5"
           width="13.985119"
           height="13.985119"
           x="149.30061"
           y="77.017853" />
        <rect
           style="fill:#ffffff;fill-opacity:1;stroke:#989898;stroke-width:0.64999998;stroke-miterlimit:4;stroke-dasharray:none;stroke-opacity:1"
           id="rect815-2-0"
           width="13.985119"
           height="13.985119"
           x="135.31549"
           y="77.01786" />
      </g>
      <g
         id="g890-3"
         transform="translate(0,55.94046)"
         style="stroke:#989898;stroke-opacity:1">
        <rect
           style="fill:#ffffff;fill-opacity:1;stroke:#989898;stroke-width:0.64999998;stroke-miterlimit:4;stroke-dasharray:none;stroke-opacity:1"
           id="rect815-61"
           width="13.985119"
           height="13.985119"
           x="23.434523"
           y="77.01786" />
        <rect
           style="fill:#ffffff;fill-opacity:1;stroke:#989898;stroke-width:0.64999998;stroke-miterlimit:4;stroke-dasharray:none;stroke-opacity:1"
           id="rect815-3-0"
           width="13.985119"
           height="13.985119"
           x="37.41964"
           y="77.01786" />
        <rect
           style="fill:#ffffff;fill-opacity:1;stroke:#989898;stroke-width:0.64999998;stroke-miterlimit:4;stroke-dasharray:none;stroke-opacity:1"
           id="rect815-6-6"
           width="13.985119"
           height="13.985119"
           x="51.404758"
           y="77.01786" />
        <rect
           style="fill:#ffffff;fill-opacity:1;stroke:#989898;stroke-width:0.64999998;stroke-miterlimit:4;stroke-dasharray:none;stroke-opacity:1"
           id="rect815-7-3"
           width="13.985119"
           height="13.985119"
           x="65.389877"
           y="77.01786" />
        <rect
           style="fill:#ffffff;fill-opacity:1;stroke:#989898;stroke-width:0.64999998;stroke-miterlimit:4;stroke-dasharray:none;stroke-opacity:1"
           id="rect815-5-2"
           width="13.985119"
           height="13.985119"
           x="79.375"
           y="77.01786" />
        <rect
           style="fill:#ffffff;fill-opacity:1;stroke:#989898;stroke-width:0.64999998;stroke-miterlimit:4;stroke-dasharray:none;stroke-opacity:1"
           id="rect815-35-0"
           width="13.985119"
           height="13.985119"
           x="93.360123"
           y="77.01786" />
        <rect
           style="fill:#ffffff;fill-opacity:1;stroke:#989898;stroke-width:0.64999998;stroke-miterlimit:4;stroke-dasharray:none;stroke-opacity:1"
           id="rect815-62-6"
           width="13.985119"
           height="13.985119"
           x="107.34525"
           y="77.01786" />
        <rect
           style="fill:#ffffff;fill-opacity:1;stroke:#989898;stroke-width:0.64999998;stroke-miterlimit:4;stroke-dasharray:none;stroke-opacity:1"
           id="rect815-9-1"
           width="13.985119"
           height="13.985119"
           x="121.33037"
           y="77.01786" />
        <rect
           style="fill:#ffffff;fill-opacity:1;stroke:#989898;stroke-width:0.64999998;stroke-miterlimit:4;stroke-dasharray:none;stroke-opacity:1"
           id="rect815-1-55"
           width="13.985119"
           height="13.985119"
           x="149.30061"
           y="77.017853" />
        <rect
           style="fill:#ffffff;fill-opacity:1;stroke:#989898;stroke-width:0.64999998;stroke-miterlimit:4;stroke-dasharray:none;stroke-opacity:1"
           id="rect815-2-4"
           width="13.985119"
           height="13.985119"
           x="135.31549"
           y="77.01786" />
      </g>
      <g
         id="g890-76"
         transform="translate(0,69.925575)"
         style="stroke:#989898;stroke-opacity:1">
        <rect
           style="fill:#ffffff;fill-opacity:1;stroke:#989898;stroke-width:0.64999998;stroke-miterlimit:4;stroke-dasharray:none;stroke-opacity:1"
           id="rect815-56"
           width="13.985119"
           height="13.985119"
           x="23.434523"
           y="77.01786" />
        <rect
           style="fill:#ffffff;fill-opacity:1;stroke:#989898;stroke-width:0.64999998;stroke-miterlimit:4;stroke-dasharray:none;stroke-opacity:1"
           id="rect815-3-937"
           width="13.985119"
           height="13.985119"
           x="37.41964"
           y="77.01786" />
        <rect
           style="fill:#ffffff;fill-opacity:1;stroke:#989898;stroke-width:0.64999998;stroke-miterlimit:4;stroke-dasharray:none;stroke-opacity:1"
           id="rect815-6-4"
           width="13.985119"
           height="13.985119"
           x="51.404758"
           y="77.01786" />
        <rect
           style="fill:#ffffff;fill-opacity:1;stroke:#989898;stroke-width:0.64999998;stroke-miterlimit:4;stroke-dasharray:none;stroke-opacity:1"
           id="rect815-7-52"
           width="13.985119"
           height="13.985119"
           x="65.389877"
           y="77.01786" />
        <rect
           style="fill:#ffffff;fill-opacity:1;stroke:#989898;stroke-width:0.64999998;stroke-miterlimit:4;stroke-dasharray:none;stroke-opacity:1"
           id="rect815-5-5"
           width="13.985119"
           height="13.985119"
           x="79.375"
           y="77.01786" />
        <rect
           style="fill:#ffffff;fill-opacity:1;stroke:#989898;stroke-width:0.64999998;stroke-miterlimit:4;stroke-dasharray:none;stroke-opacity:1"
           id="rect815-35-4"
           width="13.985119"
           height="13.985119"
           x="93.360123"
           y="77.01786" />
        <rect
           style="fill:#ffffff;fill-opacity:1;stroke:#989898;stroke-width:0.64999998;stroke-miterlimit:4;stroke-dasharray:none;stroke-opacity:1"
           id="rect815-62-7"
           width="13.985119"
           height="13.985119"
           x="107.34525"
           y="77.01786" />
        <rect
           style="fill:#ffffff;fill-opacity:1;stroke:#989898;stroke-width:0.64999998;stroke-miterlimit:4;stroke-dasharray:none;stroke-opacity:1"
           id="rect815-9-44"
           width="13.985119"
           height="13.985119"
           x="121.33037"
           y="77.01786" />
        <rect
           style="fill:#ffffff;fill-opacity:1;stroke:#989898;stroke-width:0.64999998;stroke-miterlimit:4;stroke-dasharray:none;stroke-opacity:1"
           id="rect815-1-3"
           width="13.985119"
           height="13.985119"
           x="149.30061"
           y="77.017853" />
        <rect
           style="fill:#ffffff;fill-opacity:1;stroke:#989898;stroke-width:0.64999998;stroke-miterlimit:4;stroke-dasharray:none;stroke-opacity:1"
           id="rect815-2-07"
           width="13.985119"
           height="13.985119"
           x="135.31549"
           y="77.01786" />
      </g>
    </g>
    <path
       style="fill:none;stroke:#000000;stroke-width:1.16499996;stroke-linecap:butt;stroke-linejoin:miter;stroke-miterlimit:4;stroke-dasharray:none;stroke-opacity:1;marker-start:url(#Arrow1Mstart);marker-end:url(#Arrow1Mend)"
       d="m 194.65774,83.443455 c 0,0 0,0 -164.797622,0 0,108.479165 0,108.479165 0,108.479165"
       id="path1128"
       inkscape:connector-curvature="0" />
    <path
       style="fill:none;stroke:#000000;stroke-width:0.70700002;stroke-linecap:butt;stroke-linejoin:miter;stroke-miterlimit:4;stroke-dasharray:none;stroke-opacity:1;marker-start:url(#marker1448);marker-end:url(#marker1578)"
       d="m 128.69004,170.30233 h 11.51217"
       id="path1640"
       inkscape:connector-curvature="0" />
    <text
       xml:space="preserve"
       style="font-style:normal;font-weight:normal;font-size:10.58333302px;line-height:1.25;font-family:sans-serif;letter-spacing:0px;word-spacing:0px;fill:#000000;fill-opacity:1;stroke:none;stroke-width:0.26458332"
       x="132.7749"
       y="177.25716"
       id="text3222"><tspan
         sodipodi:role="line"
         id="tspan3220"
         x="132.7749"
         y="177.25716"
         style="font-style:normal;font-variant:normal;font-weight:bold;font-stretch:normal;font-size:4.93888903px;font-family:sans-serif;-inkscape-font-specification:'sans-serif Bold';stroke-width:0.26458332">d</tspan></text>
    <path
       style="fill:none;stroke:#00a33c;stroke-width:0.86500001;stroke-linecap:butt;stroke-linejoin:miter;stroke-miterlimit:4;stroke-dasharray:5.19, 1.73;stroke-dashoffset:0;stroke-opacity:1"
       d="M 29.860118,132.27801 H 117.92857"
       id="path3236"
       inkscape:connector-curvature="0" />
    <path
       style="fill:none;stroke:#00a33c;stroke-width:0.86500001;stroke-linecap:butt;stroke-linejoin:miter;stroke-miterlimit:4;stroke-dasharray:5.19, 1.73;stroke-dashoffset:0;stroke-opacity:1"
       d="M 120.57442,84.275041 V 132.27801"
       id="path3236-8"
       inkscape:connector-curvature="0" />
    <text
       xml:space="preserve"
       style="font-style:normal;font-weight:normal;font-size:10.58333302px;line-height:1.25;font-family:sans-serif;letter-spacing:0px;word-spacing:0px;fill:#00a33c;fill-opacity:1;stroke:none;stroke-width:0.26458332"
       x="116.94585"
       y="77.849403"
       id="text3255"><tspan
         sodipodi:role="line"
         id="tspan3253"
         x="116.94585"
         y="77.849403"
         style="fill:#00a33c;stroke-width:0.26458332">7</tspan></text>
    <text
       xml:space="preserve"
       style="font-style:normal;font-weight:normal;font-size:10.58333302px;line-height:1.25;font-family:sans-serif;letter-spacing:0px;word-spacing:0px;fill:#00a33c;fill-opacity:1;stroke:none;stroke-width:0.26458332"
       x="15.323385"
       y="136.28682"
       id="text3255-6"><tspan
         sodipodi:role="line"
         id="tspan3253-8"
         x="15.323385"
         y="136.28682"
         style="fill:#00a33c;stroke-width:0.26458332">-4</tspan></text>
    <text
       xml:space="preserve"
       style="font-style:normal;font-weight:normal;font-size:10.58333302px;line-height:1.25;font-family:sans-serif;letter-spacing:0px;word-spacing:0px;fill:#00a33c;fill-opacity:1;stroke:none;stroke-width:0.26458332"
       x="119.56923"
       y="137.49632"
       id="text3255-8"><tspan
         sodipodi:role="line"
         id="tspan3253-4"
         x="119.56923"
         y="137.49632"
         style="font-style:normal;font-variant:normal;font-weight:normal;font-stretch:normal;font-size:10.58333302px;font-family:'Domestic Manners';-inkscape-font-specification:'Domestic Manners, Normal';font-variant-ligatures:normal;font-variant-caps:normal;font-variant-numeric:normal;font-feature-settings:normal;text-align:start;writing-mode:lr-tb;text-anchor:start;fill:#00a33c;stroke-width:0.26458332">x</tspan></text>
  </g>
</svg>
